[
  {
    "text": "Atlantis",
    "value": "Atlantis"
  },
  {
    "text": "Aventura",
    "value": "Aventura"
  },
  {
    "text": "Bal Harbour",
    "value": "Bal Harbour"
  },
  {
    "text": "Bay Harbor Islands",
    "value": "Bay Harbor Islands"
  },
  {
    "text": "Belle Glade",
    "value": "Belle Glade"
  },
  {
    "text": "Biscayne Park",
    "value": "Biscayne Park"
  },
  {
    "text": "Boca Raton",
    "value": "Boca Raton"
  },
  {
    "text": "Boynton Beach",
    "value": "Boynton Beach"
  },
  {
    "text": "Briny Breezes",
    "value": "Briny Breezes"
  },
  {
    "text": "Canal Point",
    "value": "Canal Point"
  },
  {
    "text": "Cloud Lake",
    "value": "Cloud Lake"
  },
  {
    "text": "Coconut Creek",
    "value": "Coconut Creek"
  },
  {
    "text": "Coconut Grove",
    "value": "Coconut Grove"
  },
  {
    "text": "Cooper City",
    "value": "Cooper City"
  },
  {
    "text": "Coral Gables",
    "value": "Coral Gables"
  },
  {
    "text": "Coral Springs",
    "value": "Coral Springs"
  },
  {
    "text": "Cutler Bay",
    "value": "Cutler Bay"
  },
  {
    "text": "Dania",
    "value": "Dania"
  },
  {
    "text": "Dania Beach",
    "value": "Dania Beach"
  },
  {
    "text": "Davie",
    "value": "Davie"
  },
  {
    "text": "Deerfield Beach",
    "value": "Deerfield Beach"
  },
  {
    "text": "Delray Beach",
    "value": "Delray Beach"
  },
  {
    "text": "Doral",
    "value": "Doral"
  },
  {
    "text": "El Portal",
    "value": "El Portal"
  },
  {
    "text": "Fisher Island",
    "value": "Fisher Island"
  },
  {
    "text": "Florida City",
    "value": "Florida City"
  },
  {
    "text": "Fort Lauderdale",
    "value": "Fort Lauderdale"
  },
  {
    "text": "Fort Pierce ",
    "value": "Fort Pierce "
  },
  {
    "text": "Golden Beach",
    "value": "Golden Beach"
  },
  {
    "text": "Green Acres",
    "value": "Green Acres"
  },
  {
    "text": "Gulfstream",
    "value": "Gulfstream"
  },
  {
    "text": "Hallandale",
    "value": "Hallandale"
  },
  {
    "text": "Haverhill",
    "value": "Haverhill"
  },
  {
    "text": "Hialeah",
    "value": "Hialeah"
  },
  {
    "text": "Hialeah Gardens",
    "value": "Hialeah Gardens"
  },
  {
    "text": "Highland Beach",
    "value": "Highland Beach"
  },
  {
    "text": "Hillsboro Beach",
    "value": "Hillsboro Beach"
  },
  {
    "text": "Hobe Sound",
    "value": "Hobe Sound"
  },
  {
    "text": "Hollywood",
    "value": "Hollywood"
  },
  {
    "text": "Homestead",
    "value": "Homestead"
  },
  {
    "text": "Hutchinson Island",
    "value": "Hutchinson Island"
  },
  {
    "text": "Hypoluxo",
    "value": "Hypoluxo"
  },
  {
    "text": "Indian River Shores",
    "value": "Indian River Shores"
  },
  {
    "text": "Indiantown",
    "value": "Indiantown"
  },
  {
    "text": "Islands/Caribbean",
    "value": "Islands/Caribbean"
  },
  {
    "text": "Jensen Beach",
    "value": "Jensen Beach"
  },
  {
    "text": "Juno Beach",
    "value": "Juno Beach"
  },
  {
    "text": "Jupiter",
    "value": "Jupiter"
  },
  {
    "text": "Jupiter Inlet Colony",
    "value": "Jupiter Inlet Colony"
  },
  {
    "text": "Kendall",
    "value": "Kendall"
  },
  {
    "text": "Key Biscayne",
    "value": "Key Biscayne"
  },
  {
    "text": "Lake Clarke Shores",
    "value": "Lake Clarke Shores"
  },
  {
    "text": "Lake Park",
    "value": "Lake Park"
  },
  {
    "text": "Lake Worth",
    "value": "Lake Worth"
  },
  {
    "text": "Lantana",
    "value": "Lantana"
  },
  {
    "text": "Lauderdale By The Sea",
    "value": "Lauderdale By The Sea"
  },
  {
    "text": "Lauderdale Lakes",
    "value": "Lauderdale Lakes"
  },
  {
    "text": "Lauderhill",
    "value": "Lauderhill"
  },
  {
    "text": "Lazy Lake",
    "value": "Lazy Lake"
  },
  {
    "text": "Lighthouse Point",
    "value": "Lighthouse Point"
  },
  {
    "text": "Loxahatchee",
    "value": "Loxahatchee"
  },
  {
    "text": "Mangonia Park",
    "value": "Mangonia Park"
  },
  {
    "text": "Margate",
    "value": "Margate"
  },
  {
    "text": "Medley",
    "value": "Medley"
  },
  {
    "text": "Merritt Island",
    "value": "Merritt Island"
  },
  {
    "text": "Miami",
    "value": "Miami"
  },
  {
    "text": "Miami Beach",
    "value": "Miami Beach"
  },
  {
    "text": "Miami Gardens",
    "value": "Miami Gardens"
  },
  {
    "text": "Miami Lakes",
    "value": "Miami Lakes"
  },
  {
    "text": "Miami Shores",
    "value": "Miami Shores"
  },
  {
    "text": "Miami Springs",
    "value": "Miami Springs"
  },
  {
    "text": "Miramar",
    "value": "Miramar"
  },
  {
    "text": "North Bay Village",
    "value": "North Bay Village"
  },
  {
    "text": "North Lauderdale",
    "value": "North Lauderdale"
  },
  {
    "text": "North Miami",
    "value": "North Miami"
  },
  {
    "text": "North Miami Beach",
    "value": "North Miami Beach"
  },
  {
    "text": "North Palm Beach",
    "value": "North Palm Beach"
  },
  {
    "text": "Oakland Park",
    "value": "Oakland Park"
  },
  {
    "text": "Ocean Ridge",
    "value": "Ocean Ridge"
  },
  {
    "text": "Okeechobee",
    "value": "Okeechobee"
  },
  {
    "text": "Opa-Locka",
    "value": "Opa-Locka"
  },
  {
    "text": "Other City - In The State Of Florida",
    "value": "Other City - In The State Of Florida"
  },
  {
    "text": "Other City - Keys/Islands/Caribbean",
    "value": "Other City - Keys/Islands/Caribbean"
  },
  {
    "text": "Other City - Not In The State Of Florida",
    "value": "Other City - Not In The State Of Florida"
  },
  {
    "text": "Other City Value - Out Of Area",
    "value": "Other City Value - Out Of Area"
  },
  {
    "text": "Other County - Not In USA",
    "value": "Other County - Not In USA"
  },
  {
    "text": "Other County - Not In Usa",
    "value": "Other County - Not In Usa"
  },
  {
    "text": "Pahokee",
    "value": "Pahokee"
  },
  {
    "text": "Palm Beach",
    "value": "Palm Beach"
  },
  {
    "text": "Palm Beach Gardens",
    "value": "Palm Beach Gardens"
  },
  {
    "text": "Palm Beach Shores",
    "value": "Palm Beach Shores"
  },
  {
    "text": "Palm City",
    "value": "Palm City"
  },
  {
    "text": "Palm Springs",
    "value": "Palm Springs"
  },
  {
    "text": "Palmetto Bay",
    "value": "Palmetto Bay"
  },
  {
    "text": "Parkland",
    "value": "Parkland"
  },
  {
    "text": "Pembroke Park",
    "value": "Pembroke Park"
  },
  {
    "text": "Pembroke Pines",
    "value": "Pembroke Pines"
  },
  {
    "text": "Pinecrest",
    "value": "Pinecrest"
  },
  {
    "text": "Plantation",
    "value": "Plantation"
  },
  {
    "text": "Pompano Beach",
    "value": "Pompano Beach"
  },
  {
    "text": "Port Saint Lucie",
    "value": "Port Saint Lucie"
  },
  {
    "text": "Port St. Lucie ",
    "value": "Port St. Lucie "
  },
  {
    "text": "Riviera Beach",
    "value": "Riviera Beach"
  },
  {
    "text": "Royal Palm Beach",
    "value": "Royal Palm Beach"
  },
  {
    "text": "Saint Lucie West",
    "value": "Saint Lucie West"
  },
  {
    "text": "Sea Ranch Lakes",
    "value": "Sea Ranch Lakes"
  },
  {
    "text": "Sebastian",
    "value": "Sebastian"
  },
  {
    "text": "Sewalls Point ",
    "value": "Sewalls Point "
  },
  {
    "text": "Singer Island",
    "value": "Singer Island"
  },
  {
    "text": "South Bay",
    "value": "South Bay"
  },
  {
    "text": "South Miami",
    "value": "South Miami"
  },
  {
    "text": "South Palm Beach",
    "value": "South Palm Beach"
  },
  {
    "text": "Southwest Ranches",
    "value": "Southwest Ranches"
  },
  {
    "text": "Stuart",
    "value": "Stuart"
  },
  {
    "text": "Sunny Isles Beach",
    "value": "Sunny Isles Beach"
  },
  {
    "text": "Sunrise",
    "value": "Sunrise"
  },
  {
    "text": "Surfside",
    "value": "Surfside"
  },
  {
    "text": "Sweetwater",
    "value": "Sweetwater"
  },
  {
    "text": "Tamarac",
    "value": "Tamarac"
  },
  {
    "text": "Tequesta",
    "value": "Tequesta"
  },
  {
    "text": "Un - Incorporated Pb County",
    "value": "Un - Incorporated Pb County"
  },
  {
    "text": "Un-Incorporated Broward County",
    "value": "Un-Incorporated Broward County"
  },
  {
    "text": "Unincorporated Broward County",
    "value": "Unincorporated Broward County"
  },
  {
    "text": "Unincorporated Dade County",
    "value": "Unincorporated Dade County"
  },
  {
    "text": "Unincorporated Pb County",
    "value": "Unincorporated Pb County"
  },
  {
    "text": "Vero Beach",
    "value": "Vero Beach"
  },
  {
    "text": "Virginia Gardens",
    "value": "Virginia Gardens"
  },
  {
    "text": "Wellington",
    "value": "Wellington"
  },
  {
    "text": "West Miami",
    "value": "West Miami"
  },
  {
    "text": "West Palm Beach",
    "value": "West Palm Beach"
  },
  {
    "text": "West Park",
    "value": "West Park"
  },
  {
    "text": "Weston",
    "value": "Weston"
  },
  {
    "text": "Wilton Manors",
    "value": "Wilton Manors"
  }
]