[
  {
    "text": "Residential Rental",
    "value": "Residential"
  },
  {
    "text": "Commercial",
    "value": "Commercial"
  },
  {
    "text": "Industrial",
    "value": "Industrial"
  },
  {
    "text": "Single",
    "value": "Single"
  },
  {
    "text": "Duplex",
    "value": "Duplex"
  },
  {
    "text": "Triplex",
    "value": "Triplex"
  },
  {
    "text": "Fourplex",
    "value": "Fourplex"
  },
  {
    "text": "Multifamily",
    "value": "Multifamily"
  },
  {
    "text": "Co-Op",
    "value": "Co-Op"
  },
  {
    "text": "Apartment",
    "value": "Apartment"
  },
  {
    "text": "Efficiency",
    "value": "Efficiency"
  },
  {
    "text": "Dockominium",
    "value": "Dockominium"
  },
  {
    "text": "Condo",
    "value": "Condo"
  },
  {
    "text": "Hotel",
    "value": "Hotel"
  },
  {
    "text": "Mobile",
    "value": "Mobile"
  },
  {
    "text": "Income",
    "value": "Income"
  },
  {
    "text": "Other",
    "value": "Other"
  },
  {
    "text": "Townhouse",
    "value": "Townhouse"
  },
  {
    "text": "Unimproved Agri/Recreatn/Moblhom",
    "value": "Unimproved Agri/Recreatn/Moblhom"
  },
  {
    "text": "Villa",
    "value": "Villa"
  },
  {
    "text": "Special",
    "value": "Special"
  },
  {
    "text": "Lease",
    "value": "Lease"
  },
  {
    "text": "Timeshare",
    "value": "Timeshare"
  }
]