[
  {
    "name": "depressed",
    "value": "v-btn--depressed"
  },
  {
    "name": "outline",
    "value": "v-btn--outline"
  },
  {
    "name": "raised",
    "value": "v-btn--raised"
  },
  {
    "name": "small",
    "value": "v-btn--small"
  },
  {
    "name": "medium",
    "value": "v-btn--medium"
  },
  {
    "name": "large",
    "value": "v-btn--large"
  }
]
